Company	Contacts	Status
MOSES MAINA	MOSES MAINA	Potential
HERMANN NJENGA	HERMANN NJENGA	Potential
Nicholas Munyao	Nicholas Munyao	Potential
john govogs	john keverenge	Potential
john govogs	john govogs	Potential
Johnny Curtain	Johnny Curtain	Potential
m t	m t	Potential
samuel njoroge ndungu	samuel njoroge ndungu	Potential
Michael Oduor	Michael Oduor	Potential
Johnstone  nguti	Johnstone  nguti	Potential