"","","","","",""
"Catherine Njoroge","0","0","0.00","0","0.00"
"Geoffrey Mureithi","0","0","0.00","0","0.00"
"Josephine Miya","0","0","0.00","0","0.00"
"Lilian Waireri","0","0","0.00","0","0.00"
"Matthew Okusimba","0","0","0.00","0","0.00"