"","","","","","","Actions"
"ABCD Company","Warm","Website","Peter Mwakini","Geoffrey Mureithi","","View"
"African Auto Kenya","Cold","Website","Fredrick Ochieng","Geoffrey Mureithi","","View"
"Fredrick Ochieng","Cold","Referal","Fredrick Ochieng","Geoffrey Mureithi","","View"
"Gagan Hayer","Potential","Referal","Gagan Hayer","Geoffrey Mureithi","","View"
"George Njuguna","Potential","Website","George Njuguna","Geoffrey Mureithi","","View"
"NIC Bank","","Website","Fredrick Ochieng","Geoffrey Mureithi","","View"